{
  "packages": ["packages/*"],
  "version": "0.1.2",
  "npmClient": "yarn",
  "useWorkspaces": true,
  "command": {
    "publish": {
      "allowBranch": ["master", "staging"],
      "message": "chore(release): publish %s [ci skip]"
    }
  },
  "ignoreChanges": ["**/.test.*", "**/*.md"]
}
